Project 1: SDS 348 Project: 1 Exploratory Data Analysis
…
## # A tibble: 6 x 11
##   state num_drivers perc_speeding perc_alcohol perc_not_distra… perc_no_previous
##   <chr>       <dbl>         <int>        <int>            <int>            <int>
## 1 Alab…        18.8            39           30               96               80
## 2 Alab…        18.8            39           30               96               80
## 3 Alab…        18.8            39           30               96               80
## 4 Alab…        18.8            39           30               96               80
## 5 Alas…        18.1            41           25               90               94
## 6 Alas…        18.1            41           25               90               94
## # … with 5 more variables: `insurance premiums/insurance losses` <chr>,
## #   `Insurance Related Costs` <dbl>, variable <chr>, estimate <dbl>, moe <dbl>

driver_us %>% arrange(desc(state), desc(perc_alcohol), desc(`Insurance Related Costs`))

## # A tibble: 206 x 11
##    state num_drivers perc_speeding perc_alcohol perc_not_distra…
##    <chr>       <dbl>         <int>        <int>            <int>
##  1 Wyom…        17.4            42           32               81
##  2 Wyom…        17.4            42           32               81
##  3 Wyom…        17.4            42           32               81
##  4 Wyom…        17.4            42           32               81
##  5 Wisc…        13.8            36           33               39
##  6 Wisc…        13.8            36           33               39
##  7 Wisc…        13.8            36           33               39
##  8 Wisc…        13.8            36           33               39
##  9 West…        23.8            34           28               97
## 10 West…        23.8            34           28               97
## # … with 196 more rows, and 6 more variables: perc_no_previous <int>,
## #   `insurance premiums/insurance losses` <chr>, `Insurance Related
## #   Costs` <dbl>, variable <chr>, estimate <dbl>, moe <dbl>

driver_us%>%select(state, perc_alcohol)

## # A tibble: 206 x 2
##    state   perc_alcohol
##    <chr>          <int>
##  1 Alabama           30
##  2 Alabama           30
##  3 Alabama           30
##  4 Alabama           30
##  5 Alaska            25
##  6 Alaska            25
##  7 Alaska            25
##  8 Alaska            25
##  9 Arizona           28
## 10 Arizona           28
## # … with 196 more rows

driver_us %>% mutate(average = perc_alcohol/perc_no_previous)

## # A tibble: 206 x 12
##    state num_drivers perc_speeding perc_alcohol perc_not_distra…
##    <chr>       <dbl>         <int>        <int>            <int>
##  1 Alab…        18.8            39           30               96
##  2 Alab…        18.8            39           30               96
##  3 Alab…        18.8            39           30               96
##  4 Alab…        18.8            39           30               96
##  5 Alas…        18.1            41           25               90
##  6 Alas…        18.1            41           25               90
##  7 Alas…        18.1            41           25               90
##  8 Alas…        18.1            41           25               90
##  9 Ariz…        18.6            35           28               84
## 10 Ariz…        18.6            35           28               84
## # … with 196 more rows, and 7 more variables: perc_no_previous <int>,
## #   `insurance premiums/insurance losses` <chr>, `Insurance Related
## #   Costs` <dbl>, variable <chr>, estimate <dbl>, moe <dbl>, average <dbl>

driver_us %>% summarize(mean(num_drivers, na.rm=T), n(), n_distinct(state))

## # A tibble: 1 x 3
##   `mean(num_drivers, na.rm = T)` `n()` `n_distinct(state)`
##                            <dbl> <int>               <int>
## 1                           15.8   206                  52

driver_us %>% group_by(state) %>% summarize(mean_num=mean(num_drivers), mean_alco_noNA=mean(perc_alcohol))

## # A tibble: 52 x 3
##    state                mean_num mean_alco_noNA
##    <chr>                   <dbl>          <dbl>
##  1 Alabama                  18.8             30
##  2 Alaska                   18.1             25
##  3 Arizona                  18.6             28
##  4 Arkansas                 22.4             26
##  5 California               12               28
##  6 Colorado                 13.6             28
##  7 Connecticut              10.8             36
##  8 Delaware                 16.2             30
##  9 District of Columbia      5.9             27
## 10 Florida                  17.9             29
## # … with 42 more rows
…
